IS415-GAA - Take Home Exercise 1
…
Installing and Loading Packages

Lets install the relevant R libraries needed using pacman.

pacman::p_load(sf, spNetwork, tmap, classInt, viridis, tidyverse, list, arrow, lubridate, tidyverse, readr, sp, maptools, raster, spatstat, spdep)

Importing and Preparing Grab Aspatial Data

Reading the grab aspatial data:

df <- read_parquet("../../data/GrabPosisi/part-00000.parquet")
df

# A tibble: 3,034,553 × 9
   trj_id driving_mode osname pingtimestamp rawlat rawlng speed bearing accuracy
   <chr>  <chr>        <chr>          <int>  <dbl>  <dbl> <dbl>   <int>    <dbl>
 1 70014  car          andro…    1554943236   1.34   104. 18.9      248     3.9 
 2 73573  car          andro…    1555582623   1.32   104. 17.7       44     4   
 3 75567  car          andro…    1555141026   1.33   104. 14.0       34     3.9 
 4 1410   car          andro…    1555731693   1.26   104. 13.0      181     4   
 5 4354   car          andro…    1555584497   1.28   104. 14.8       93     3.9 
 6 32630  car          andro…    1555395258   1.30   104. 23.2       73     3.9 
 7 64631  car          andro…    1554768955   1.35   104.  0         82     3   
 8 76484  car          andro…    1554783532   1.34   104.  3.98     321     3.65
 9 65747  car          ios       1554898418   1.29   104.  4.68     324    50   
10 60478  car          ios       1555593189   1.33   104. 16.5       31    16   
# ℹ 3,034,543 more rows
…
Grab taxi location points either by destinations:

destination_df <- df %>%
  group_by(trj_id) %>%
  arrange(desc(pingtimestamp)) %>%
  filter(row_number()==1) %>%
  mutate(weekday = wday(pingtimestamp,
                        label=TRUE,
                        abbr=TRUE),
         end_hr = factor(hour(pingtimestamp)),
         day = factor(mday(pingtimestamp)))
destination_df

# A tibble: 28,000 × 12
# Groups:   trj_id [28,000]
   trj_id driving_mode osname  pingtimestamp       rawlat rawlng speed bearing
   <chr>  <chr>        <chr>   <dttm>               <dbl>  <dbl> <dbl>   <int>
 1 54687  car          android 2019-04-21 23:56:37   1.44   104.  1.19     299
 2 81574  car          ios     2019-04-21 23:56:33   1.34   104. 17.4      117
 3 17190  car          android 2019-04-21 23:56:30   1.34   104.  9.09     201
 4 13793  car          android 2019-04-21 23:56:25   1.32   104.  5.55     180
 5 39014  car          ios     2019-04-21 23:56:11   1.33   104. 14.1      179
 6 41170  car          ios     2019-04-21 23:56:09   1.32   104. 13.0       73
 7 64519  car          ios     2019-04-21 23:55:36   1.43   104. 12.6      210
 8 70461  car          ios     2019-04-21 23:55:29   1.29   104.  7.53      53
 9 41154  car          ios     2019-04-21 23:54:49   1.32   104. 14.4      163
10 5452   car          ios     2019-04-21 23:54:28   1.33   104. 12.0      347
# ℹ 27,990 more rows
# ℹ 4 more variables: accuracy <dbl>, weekday <ord>, end_hr <fct>, day <fct>
…
trip_endings_df[1:100,]

Simple feature collection with 100 features and 10 fields
Geometry type: POINT
Dimension:     XY
Bounding box:  xmin: 4407.895 ymin: 27568.66 xmax: 45120.65 ymax: 49294.44
Projected CRS: SVY21 / Singapore TM
# A tibble: 100 × 11
# Groups:   trj_id [100]
   trj_id driving_mode osname pingtimestamp       speed bearing accuracy weekday
   <chr>  <chr>        <chr>  <dttm>              <dbl>   <int>    <dbl> <ord>  
 1 54687  car          andro… 2019-04-21 23:56:37  1.19     299     3.60 Sun    
 2 81574  car          ios    2019-04-21 23:56:33 17.4      117     8    Sun    
 3 17190  car          andro… 2019-04-21 23:56:30  9.09     201     4    Sun    
 4 13793  car          andro… 2019-04-21 23:56:25  5.55     180     3.9  Sun    
 5 39014  car          ios    2019-04-21 23:56:11 14.1      179     4    Sun    
 6 41170  car          ios    2019-04-21 23:56:09 13.0       73     5    Sun    
 7 64519  car          ios    2019-04-21 23:55:36 12.6      210     8    Sun    
 8 70461  car          ios    2019-04-21 23:55:29  7.53      53    10    Sun    
 9 41154  car          ios    2019-04-21 23:54:49 14.4      163    32    Sun    
10 5452   car          ios    2019-04-21 23:54:28 12.0      347     8    Sun    
# ℹ 90 more rows
# ℹ 3 more variables: end_hr <fct>, day <fct>, geometry <POINT [m]>
…
