IS415-GAA - Hands-on Exercise 5: Global Measures of Spatial Autocorrelation & Local Measures of Spatial Autocorrelation
…
[1] "/Users/maarunipandithurai/Documents/maars202/geospatial/IS415-GAA/data/GrabPosisi//part-00000.parquet --> curr dimensions: [3034553, 9] --> total dimensions: [3034553, 9]"
[1] "/Users/maarunipandithurai/Documents/maars202/geospatial/IS415-GAA/data/GrabPosisi//part-00001-8bbff892-97d2-4011-9961-703e38972569.c000.snappy.parquet --> curr dimensions: [3029553, 9] --> total dimensions: [6064106, 9]"
[1] "/Users/maarunipandithurai/Documents/maars202/geospatial/IS415-GAA/data/GrabPosisi//part-00002-8bbff892-97d2-4011-9961-703e38972569.c000.snappy.parquet --> curr dimensions: [3032527, 9] --> total dimensions: [9096633, 9]"
[1] "/Users/maarunipandithurai/Documents/maars202/geospatial/IS415-GAA/data/GrabPosisi//part-00003-8bbff892-97d2-4011-9961-703e38972569.c000.snappy.parquet --> curr dimensions: [3033732, 9] --> total dimensions: [12130365, 9]"
[1] "/Users/maarunipandithurai/Documents/maars202/geospatial/IS415-GAA/data/GrabPosisi//part-00004-8bbff892-97d2-4011-9961-703e38972569.c000.snappy.parquet --> curr dimensions: [3031857, 9] --> total dimensions: [15162222, 9]"
[1] "/Users/maarunipandithurai/Documents/maars202/geospatial/IS415-GAA/data/GrabPosisi//part-00005-8bbff892-97d2-4011-9961-703e38972569.c000.snappy.parquet --> curr dimensions: [3034701, 9] --> total dimensions: [18196923, 9]"
[1] "/Users/maarunipandithurai/Documents/maars202/geospatial/IS415-GAA/data/GrabPosisi//part-00006-8bbff892-97d2-4011-9961-703e38972569.c000.snappy.parquet --> curr dimensions: [3033018, 9] --> total dimensions: [21229941, 9]"
[1] "/Users/maarunipandithurai/Documents/maars202/geospatial/IS415-GAA/data/GrabPosisi//part-00007-8bbff892-97d2-4011-9961-703e38972569.c000.snappy.parquet --> curr dimensions: [3034261, 9] --> total dimensions: [24264202, 9]"
[1] "/Users/maarunipandithurai/Documents/maars202/geospatial/IS415-GAA/data/GrabPosisi//part-00008-8bbff892-97d2-4011-9961-703e38972569.c000.snappy.parquet --> curr dimensions: [3032914, 9] --> total dimensions: [27297116, 9]"
[1] "/Users/maarunipandithurai/Documents/maars202/geospatial/IS415-GAA/data/GrabPosisi//part-00009-8bbff892-97d2-4011-9961-703e38972569.c000.snappy.parquet --> curr dimensions: [3032569, 9] --> total dimensions: [30329685, 9]"

dfs

# A tibble: 30,329,685 × 9
   trj_id driving_mode osname pingtimestamp rawlat rawlng speed bearing accuracy
   <chr>  <chr>        <chr>          <int>  <dbl>  <dbl> <dbl>   <int>    <dbl>
 1 70014  car          andro…    1554943236   1.34   104. 18.9      248     3.9 
 2 73573  car          andro…    1555582623   1.32   104. 17.7       44     4   
 3 75567  car          andro…    1555141026   1.33   104. 14.0       34     3.9 
 4 1410   car          andro…    1555731693   1.26   104. 13.0      181     4   
 5 4354   car          andro…    1555584497   1.28   104. 14.8       93     3.9 
 6 32630  car          andro…    1555395258   1.30   104. 23.2       73     3.9 
 7 64631  car          andro…    1554768955   1.35   104.  0         82     3   
 8 76484  car          andro…    1554783532   1.34   104.  3.98     321     3.65
 9 65747  car          ios       1554898418   1.29   104.  4.68     324    50   
10 60478  car          ios       1555593189   1.33   104. 16.5       31    16   
# ℹ 30,329,675 more rows

length(dfs)

[1] 9

dfs[1:2]

# A tibble: 30,329,685 × 2
   trj_id driving_mode
   <chr>  <chr>       
 1 70014  car         
 2 73573  car         
 3 75567  car         
 4 1410   car         
 5 4354   car         
 6 32630  car         
 7 64631  car         
 8 76484  car         
 9 65747  car         
10 60478  car         
# ℹ 30,329,675 more rows
…
